<?xml version="1.0" standalone="no"?>
<!DOCTYPE svg PUBLIC "-//W3C//DTD SVG 20010904//EN"
 "http://www.w3.org/TR/2001/REC-SVG-20010904/DTD/svg10.dtd">
<svg version="1.0" xmlns="http://www.w3.org/2000/svg"
 width="700.000000pt" height="700.000000pt" viewBox="0 0 700.000000 700.000000"
 preserveAspectRatio="xMidYMid meet">
<metadata>
Created by potrace 1.14, written by Peter Selinger 2001-2017
</metadata>
<g transform="translate(0.000000,700.000000) scale(0.100000,-0.100000)"
fill="#000000" stroke="none">
<path d="M3279 6996 c-2 -2 -42 -6 -89 -10 -101 -7 -145 -12 -265 -32 -49 -9
-99 -17 -110 -19 -11 -1 -40 -7 -65 -13 -25 -6 -56 -13 -70 -15 -37 -7 -211
-56 -243 -69 -18 -7 -26 -16 -23 -27 3 -9 8 -36 12 -61 4 -25 8 -47 9 -50 2
-7 15 -88 21 -120 34 -217 179 -971 206 -1075 5 -22 12 -51 15 -65 4 -23 29
-136 57 -254 6 -27 15 -49 19 -48 5 0 88 56 184 124 988 692 1381 959 1763
1198 91 57 188 118 215 135 28 18 59 37 70 43 17 9 13 13 -40 37 -360 162
-717 263 -1060 301 -33 3 -73 8 -90 11 -36 5 -511 14 -516 9z"/>
<path d="M1815 6572 c-176 -95 -385 -238 -552 -377 -126 -104 -337 -314 -439
-435 -376 -447 -647 -1010 -754 -1565 -36 -187 -41 -220 -57 -395 -15 -161 -8
-605 11 -707 2 -10 7 -44 10 -75 13 -108 35 -228 44 -228 2 0 57 53 122 117
203 204 441 432 636 609 156 143 123 114 335 299 153 135 193 169 254 220 27
22 53 45 59 50 6 6 52 44 101 85 50 41 92 77 95 80 3 3 52 44 110 90 58 47
107 88 110 91 3 3 87 72 188 153 100 81 182 151 182 156 0 5 -11 55 -25 112
-13 57 -35 150 -49 208 -14 58 -28 120 -31 139 -3 19 -7 37 -9 40 -2 3 -7 23
-10 43 -3 20 -15 79 -27 130 -26 118 -18 81 -84 393 -31 149 -58 279 -61 290
-2 11 -15 76 -29 145 -14 69 -28 136 -31 150 -3 14 -7 36 -10 50 -2 14 -10 50
-16 80 -7 30 -12 61 -11 68 1 17 -5 15 -62 -16z"/>
<path d="M5375 6283 c-175 -115 -578 -383 -640 -426 -320 -220 -675 -470 -820
-577 -182 -135 -486 -361 -502 -374 -10 -8 -81 -63 -158 -123 -77 -60 -180
-140 -228 -178 -96 -75 -90 -64 -73 -150 6 -30 172 -691 191 -760 9 -33 18
-67 20 -75 4 -19 100 -366 120 -437 8 -29 22 -77 30 -105 77 -275 221 -751
321 -1068 36 -113 157 -482 269 -820 212 -640 246 -757 225 -770 -33 -20 -165
39 -324 145 -95 63 -132 97 -207 185 -51 60 -74 97 -141 220 -71 131 -349 913
-478 1345 -10 33 -41 137 -69 230 -28 94 -58 195 -67 225 -9 30 -21 71 -27 90
-6 19 -12 40 -13 45 -2 6 -12 43 -24 83 -72 256 -275 996 -285 1038 -2 10 -10
41 -17 67 l-13 48 -30 -23 c-17 -12 -34 -28 -40 -34 -5 -6 -46 -39 -90 -75
-44 -35 -82 -66 -85 -69 -3 -3 -18 -16 -35 -29 -16 -12 -52 -42 -80 -66 -27
-23 -129 -110 -225 -191 -96 -82 -182 -156 -190 -164 -16 -15 -142 -127 -184
-163 -286 -247 -1020 -965 -1180 -1154 -18 -22 -18 -24 85 -229 129 -257 122
-244 131 -244 5 0 8 -5 8 -11 0 -5 38 -67 85 -137 256 -384 587 -715 965 -966
247 -165 492 -288 760 -384 118 -42 338 -106 400 -117 19 -3 51 -10 70 -15 56
-15 295 -49 400 -57 123 -10 492 -10 595 0 112 11 153 15 192 22 18 3 50 8 71
11 30 4 217 43 282 58 295 69 689 237 985 420 332 206 645 488 893 803 118
149 174 234 322 483 13 23 115 231 133 270 8 19 24 56 36 82 11 26 21 54 21
61 0 7 4 17 9 22 27 29 154 480 177 630 4 28 9 52 9 55 1 3 5 32 9 65 5 33 10
69 12 80 29 146 25 680 -7 900 -6 39 -12 85 -15 103 -6 48 -33 178 -51 247 -8
33 -16 65 -17 70 -50 223 -212 616 -359 870 -177 307 -455 643 -722 875 -109
94 -283 230 -293 229 -4 0 -65 -39 -137 -86z"/>
</g>
</svg>
